\relax 
\@writefile{toc}{\contentsline {section}{\numberline {1}Introduction}{1}{}\protected@file@percent }
\@writefile{toc}{\contentsline {section}{\numberline {2}Background}{1}{}\protected@file@percent }
\@writefile{toc}{\contentsline {section}{\numberline {3}Summary}{1}{}\protected@file@percent }
\gdef \@abspage@last{1}
